﻿#,Id,模型名称,描述,资源路径,缩放比例,
&&,Id,Name,Desc,Path,Scale,
,1000,PathPoint,路径点,zhongguoxiangqi/battle/prefab/pathpoint/PathPoint,2,
,1010,Elven,精灵,zhongguoxiangqi/generic/prefab/castle/Elven,1,
,1011,Goblin,哥布林,zhongguoxiangqi/generic/prefab/castle/Goblin,1,
,1012,Human,人类,zhongguoxiangqi/generic/prefab/castle/Human,1,
,1013,Undead,亡灵,zhongguoxiangqi/generic/prefab/castle/Undead,1,
