﻿#,协议id,协议名称,协议描述,协议来源,协议去向,协议类型,是否Actor协议,Lua协议,参数名称,参数类型,参数描述,
&&,Id,Name,Desc,From,To,Style,IsActor,isLua,Parameter.Name,Parameter.Type,Parameter.Desc,
,30200,CreateRoom,请求创建房间,Client,World,Req,true,,,,,
,30201,CreateRoom,响应创建房间,World,Client,Res,true,,RoomId,uint,房间id,
,,,,,,,,,,,,
,30205,QuitRoom,请求退出房间,Client,World,Req,true,,,,,
,30206,QuitRoom,响应退出房间,World,Client,Res,true,,,,,
,,,,,,,,,,,,
,30210,JoinRoom,请求加入房间,Client,World,Req,true,,RoomId,uint,房间id,
,30211,JoinRoom,响应加入房间,World,Client,Res,true,,,,,
,30212,JoinRoom,加入房间,World,Client,Ntf,true,,Applier,PlayerVO,申请者信息,
,,,,,,,,,,,,
,30215,DealJoin,处理加入请求,Client,World,Req,true,,IsAccept,bool,处理结果,
,,,,,,,,,PlayerId,long,玩家Id,
,30216,DealJoin,处理加入请求,World,Client,Res,true,,,,,
,30217,DealJoin,响应加入房间,World,Client,Ntf,true,,IsAccept,bool,是否被接受,
,,,,,,,,,Accepter,PlayerVO,对方玩家信息,
,,,,,,,,,,,,
,30220,StartMatch,开始比赛通知,World,Client,Ntf,true,,StartTime,long,开始时间,
,,,,,,,,,RoomVO,RoomVO,详细房间信息,
