﻿#,窗口Id,窗口名称,描述,lua文件名称,资源路径,预加载资源数组,依赖场景,层级,缓存类型,依赖窗口,是否弹出窗口
&&,Id,Name,Desc,LuaFile,ResPath,Preload,DependScene,Layer,CacheType,RelyWnd,IsPopup
,2001,Login,登陆窗口,,common/common/prefab/wnd/login_wnd,,1000,Normal,Never,0,
,2010,Lobby,大厅窗口,,common/common/prefab/wnd/lobby_wnd,,1001,Normal,Never,0,
,2011,Match,匹配界面,,common/common/prefab/wnd/match_wnd,,1001,Normal,Normal,1001,true
,2012,JoinRoom,加入房间界面,,common/common/prefab/wnd/join_wnd,,1001,Normal,Normal,1001,true
,2020,Battle,战斗窗口,,wuziqi/battle/prefab/wnd/battlewnd,,1002,Battle,Never,0,
,2021,Operate,操作窗口,,wuziqi/battle/prefab/wnd/operatewnd,,1002,Normal,Never,0,