﻿#,坐标点位,世界坐标X坐标,世界坐标Y坐标
&&,Pos,Axis.X,Axis.Y
,0|0,0,0
,0|1,0,2
,0|2,0,4
,0|3,0,6
,0|4,0,8
,0|5,0,10
,0|6,0,12
,0|7,0,14
,-1|7,-2,14
,-1|6,-2,12
,-1|5,-2,10
,1|5,2,10
,1|6,2,12
,1|7,2,14
,-2|7,-4,14
,-2|6,-4,12
,-2|5,-4,10
,-2|4,-4,8
,-1|4,-2,8
,-2|3,-4,6
,-1|3,-2,6
,1|3,2,6
,1|4,2,8
,2|3,4,6
,2|4,4,8
,2|5,4,10
,2|6,4,12
,2|7,4,14
,-3|7,-6,14
,-3|6,-6,12
,-3|5,-6,10
,-3|4,-6,8
,-3|3,-6,6
,-3|2,-6,4
,-2|2,-4,4
,-1|2,-2,4
,1|2,2,4
,-3|1,-6,2
,-2|1,-4,2
,-1|1,-2,2
,1|1,2,2
,2|1,4,2
,2|2,4,4
,3|1,6,2
,3|2,6,4
,3|3,6,6
,3|4,6,8
,3|5,6,10
,3|6,6,12
,3|7,6,14
,-4|7,-8,14
,-4|6,-8,12
,-4|5,-8,10
,-4|4,-8,8
,-4|3,-8,6
,-4|2,-8,4
,-4|1,-8,2
,-4|0,-8,0
,-3|0,-6,0
,-2|0,-4,0
,-1|0,-2,0
,1|0,2,0
,2|0,4,0
,-4|-1,-8,-2
,-3|-1,-6,-2
,-2|-1,-4,-2
,-1|-1,-2,-2
,0|-1,0,-2
,1|-1,2,-2
,2|-1,4,-2
,3|-1,6,-2
,3|0,6,0
,4|-1,8,-2
,4|0,8,0
,4|1,8,2
,4|2,8,4
,4|3,8,6
,4|4,8,8
,4|5,8,10
,4|6,8,12
,4|7,8,14
,-5|7,-10,14
,-5|6,-10,12
,-5|5,-10,10
,-5|4,-10,8
,-5|3,-10,6
,-5|2,-10,4
,-5|1,-10,2
,-5|0,-10,0
,-5|-1,-10,-2
,-5|-2,-10,-4
,-4|-2,-8,-4
,-3|-2,-6,-4
,-2|-2,-4,-4
,-1|-2,-2,-4
,0|-2,0,-4
,1|-2,2,-4
,2|-2,4,-4
,3|-2,6,-4
,-5|-3,-10,-6
,-4|-3,-8,-6
,-3|-3,-6,-6
,-2|-3,-4,-6
,-1|-3,-2,-6
,0|-3,0,-6
,1|-3,2,-6
,2|-3,4,-6
,3|-3,6,-6
,4|-3,8,-6
,4|-2,8,-4
,5|-3,10,-6
,5|-2,10,-4
,5|-1,10,-2
,5|0,10,0
,5|1,10,2
,5|2,10,4
,5|3,10,6
,5|4,10,8
,5|5,10,10
,5|6,10,12
,5|7,10,14
,-6|7,-12,14
,-6|6,-12,12
,-6|5,-12,10
,-6|4,-12,8
,-6|3,-12,6
,-6|2,-12,4
,-6|1,-12,2
,-6|0,-12,0
,-6|-1,-12,-2
,-6|-2,-12,-4
,-6|-3,-12,-6
,-6|-4,-12,-8
,-5|-4,-10,-8
,-4|-4,-8,-8
,-3|-4,-6,-8
,-2|-4,-4,-8
,-1|-4,-2,-8
,0|-4,0,-8
,1|-4,2,-8
,2|-4,4,-8
,3|-4,6,-8
,4|-4,8,-8
,-6|-5,-12,-10
,-5|-5,-10,-10
,-4|-5,-8,-10
,-3|-5,-6,-10
,-2|-5,-4,-10
,-1|-5,-2,-10
,0|-5,0,-10
,1|-5,2,-10
,2|-5,4,-10
,3|-5,6,-10
,4|-5,8,-10
,5|-5,10,-10
,5|-4,10,-8
,6|-5,12,-10
,6|-4,12,-8
,6|-3,12,-6
,6|-2,12,-4
,6|-1,12,-2
,6|0,12,0
,6|1,12,2
,6|2,12,4
,6|3,12,6
,6|4,12,8
,6|5,12,10
,6|6,12,12
,6|7,12,14
,-7|7,-14,14
,-7|6,-14,12
,-7|5,-14,10
,-7|4,-14,8
,-7|3,-14,6
,-7|2,-14,4
,-7|1,-14,2
,-7|0,-14,0
,-7|-1,-14,-2
,-7|-2,-14,-4
,-7|-3,-14,-6
,-7|-4,-14,-8
,-7|-5,-14,-10
,-7|-6,-14,-12
,-6|-6,-12,-12
,-5|-6,-10,-12
,-4|-6,-8,-12
,-3|-6,-6,-12
,-2|-6,-4,-12
,-1|-6,-2,-12
,0|-6,0,-12
,1|-6,2,-12
,2|-6,4,-12
,3|-6,6,-12
,4|-6,8,-12
,5|-6,10,-12
,-7|-7,-14,-14
,-6|-7,-12,-14
,-5|-7,-10,-14
,-4|-7,-8,-14
,-3|-7,-6,-14
,-2|-7,-4,-14
,-1|-7,-2,-14
,0|-7,0,-14
,1|-7,2,-14
,2|-7,4,-14
,3|-7,6,-14
,4|-7,8,-14
,5|-7,10,-14
,6|-7,12,-14
,6|-6,12,-12
,7|-7,14,-14
,7|-6,14,-12
,7|-5,14,-10
,7|-4,14,-8
,7|-3,14,-6
,7|-2,14,-4
,7|-1,14,-2
,7|0,14,0
,7|1,14,2
,7|2,14,4
,7|3,14,6
,7|4,14,8
,7|5,14,10
,7|6,14,12
,7|7,14,14
