﻿#,窗口Id,窗口名称,lua文件名称,资源路径,预加载资源数组,依赖场景,层级,缓存类型,依赖窗口,是否弹出窗口
&&,ID,Name,LuaFile,ResPath,Preload,DependScene,Layer,CacheType,RelyWnd,IsPopup
,1,通用加载窗口,,Prefabs/generic/loading_wnd,,,Loading,Always,0,
,2,通用对话框,,Prefabs/generic/generic_dialog_wnd,,,Dialog,Always,0,True
,3,通用提示框,,Prefabs/generic/generic_tips_wnd,,,Tips,Always,0,
,100,英雄头像窗口,,Prefabs/lobby/head_wnd,,,Normal,Always,0,
,101,战斗窗口,,Prefabs/battle/Wnd/fight_wnd,Prefabs/UI/ActorStatus,1003,Battle,Always,0,
,,,,,Prefabs/UI/Buff,,,,,
,,,,,EPerfab/Character/E_Buff_01,,,,,
,,,,,EPerfab/Character/E_Buff_01_02,,,,,
,,,,,EPerfab/Character/E_Buff_01_03,,,,,
,102,战斗行动条窗口,,Prefabs/battle/Wnd/fight_action_wnd,,1003,Battle,Always,0,
,103,战斗道具窗口,,Prefabs/battle/Wnd/fight_bag_wnd,,1003,Battle,Always,0,
,104,战斗卡牌窗口,,Prefabs/battle/Wnd/fight_card_wnd,Prefabs/UI/Card,1003,Battle,Always,0,
,105,战斗结算窗口,,Prefabs/battle/Wnd/fight_close_wnd,,1003,Battle,Always,0,
,106,资源加载窗口,,Prefabs/lobby/LoadWnd,,1004,Loading,Always,0,
,107,主窗口,,Prefabs/lobby/MainWnd,,1005,Normal,Always,0,
,108,登陆界面,,Prefabs/lobby/LoginWnd,,1004,Normal,Always,0,
,109,关卡界面,,Prefabs/lobby/LevelWnd,,1005,Normal,Always,0,
,110,地图界面,,Prefabs/lobby/MapWnd,,1005,Normal,Always,0,
,111,酒馆,,Prefabs/lobby/TavernWnd,,1005,Normal,Always,0,
,112,家园,,Prefabs/lobby/HomeWnd,,1005,Normal,Always,0,
,113,主城,,Prefabs/lobby/MainCityWnd,,1005,Normal,Always,0,
,114,铁匠铺,,Prefabs/lobby/SmithyWnd,,1005,Normal,Always,0,
,115,杂货铺,,Prefabs/lobby/VarietyShopWnd,,1005,Normal,Always,0,
,200,InnerDev窗口,,Prefabs/lobby/InnerDevWnd,,1006,Normal,Always,0,